{
    "KPlugin": {
        "Description": "Render to a nested window on running Wayland compositor.",
        "Description[ar]": "التصيير إلى نافذة متداخلة تعمل على مؤلف ويلاند.",
        "Description[az]": "Wayland birləşdiricisində iç-içə keçmiş pəncərələri formalaşdırmaq.",
        "Description[ca@valencia]": "Renderitza a una finestra imbricada en un compositor Wayland en execució.",
        "Description[ca]": "Renderitza a una finestra imbricada en un compositor Wayland en execució.",
        "Description[da]": "Rendér til et indlejret vindue på kørende Wayland-compositor.",
        "Description[de]": "In ein eingebettetes Fenster auf dem laufenden Wayland-Kompositor rendern.",
        "Description[el]": "Αποτύπωση σε εμφωλευμένο παράθυρο κατά την εκτέλεση του συνθέτη Wayland.",
        "Description[en_GB]": "Render to a nested window on running Wayland compositor.",
        "Description[es]": "Renderizar en una ventana anidada en el compositor Wayland en ejecución.",
        "Description[et]": "Renderdamine töötava Waylandi komposiitori pesastatud aknas.",
        "Description[eu]": "Errendatu Wayland konposatzailean habiaratutako leiho batera.",
        "Description[fi]": "Hahmonna sisäkkäiseen ikkunaan, jota hallitsee Wayland-koostin.",
        "Description[fr]": "Rendre sur une fenêtre imbriquée sur un compositeur Wayland en cours de fonctionnement.",
        "Description[gl]": "Renderizar unha xanela aniñada no compositor de Wayland en execución.",
        "Description[hu]": "Renderelés egy Wayland kompozitoron futó beágyazott ablakba.",
        "Description[ia]": "Render a un fenestra annidate sur compositor Wayland executante. ",
        "Description[id]": "Render untuk sebuah window tersarang pada Wayland compositor yang berjalan.",
        "Description[it]": "Resa in una finestra nidificata su compositore Wayland in esecuzione.",
        "Description[ko]": "Wayland 컴포지터에서 실행 중인 창에 렌더링합니다.",
        "Description[lt]": "Atvaizduoti į įdėtinį langą, veikiančiame Wayland kompozitoriuje.",
        "Description[nl]": "Render naar een genest venster in een werkende Wayland-compositor.",
        "Description[nn]": "Teikn opp til innebygd vindauge på køyrande Wayland-samansetjar.",
        "Description[pl]": "Wyświetlaj w zagnieżdżonym oknie w kompozytorze Wayland.",
        "Description[pt]": "Desenhar numa janela encadeada no compositor de Wayland em execução.",
        "Description[pt_BR]": "Renderizar uma janela encadeada no compositor Wayland em execução.",
        "Description[ro]": "Randează într-o fereastră imbricată pe compozitorul Wayland activ.",
        "Description[ru]": "Отрисовка во вложенное окно компоновщика Wayland.",
        "Description[sk]": "Renderovať na vnorené okno na bežiaci kompozítor Wayland.",
        "Description[sl]": "Izriši v gnezdeno okno na upravljalniku skladnje Wayland.",
        "Description[sr@ijekavian]": "Рендеровање у угнежђени прозор на вејланд слагачу.",
        "Description[sr@ijekavianlatin]": "Renderovanje u ugnežđeni prozor na Wayland slagaču.",
        "Description[sr@latin]": "Renderovanje u ugnežđeni prozor na Wayland slagaču.",
        "Description[sr]": "Рендеровање у угнежђени прозор на вејланд слагачу.",
        "Description[sv]": "Återge till ett nästlat fönster på Wayland-sammansättare som kör.",
        "Description[tr]": "Wayland bileşikleştiricisi çalıştıran iç içe geçmiş bir pencerede gerçekle.",
        "Description[uk]": "Обробляти у вкладене вікно запущеного засобу композиції Wayland.",
        "Description[vi]": "Kết xuất vào một cửa sổ lồng trong trình kết hợp Wayland đang chạy.",
        "Description[x-test]": "xxRender to a nested window on running Wayland compositor.xx",
        "Description[zh_CN]": "渲染到 Wayland 显示特效混合器上的嵌套窗口中",
        "Description[zh_TW]": "成像到執行中的 Wayland 的巢狀視窗。",
        "Id": "KWinWaylandWaylandBackend",
        "Name": "wayland",
        "Name[ar]": "ويلاند",
        "Name[az]": "wayland",
        "Name[ca@valencia]": "Wayland",
        "Name[ca]": "Wayland",
        "Name[cs]": "wayland",
        "Name[da]": "wayland",
        "Name[de]": "Wayland",
        "Name[el]": "wayland",
        "Name[en_GB]": "wayland",
        "Name[es]": "wayland",
        "Name[et]": "wayland",
        "Name[eu]": "wayland",
        "Name[fi]": "wayland",
        "Name[fr]": "wayland",
        "Name[gl]": "wayland",
        "Name[hu]": "wayland",
        "Name[ia]": "wayland",
        "Name[id]": "wayland",
        "Name[it]": "wayland",
        "Name[ko]": "wayland",
        "Name[lt]": "wayland",
        "Name[nl]": "wayland",
        "Name[nn]": "wayland",
        "Name[pa]": "ਵੇਲੈਂਡ",
        "Name[pl]": "wayland",
        "Name[pt]": "Wayland",
        "Name[pt_BR]": "wayland",
        "Name[ro]": "wayland",
        "Name[ru]": "wayland",
        "Name[sk]": "wayland",
        "Name[sl]": "wayland",
        "Name[sr@ijekavian]": "Вејланд",
        "Name[sr@ijekavianlatin]": "Wayland",
        "Name[sr@latin]": "Wayland",
        "Name[sr]": "Вејланд",
        "Name[sv]": "Wayland",
        "Name[tr]": "wayland",
        "Name[uk]": "wayland",
        "Name[vi]": "wayland",
        "Name[x-test]": "xxwaylandxx",
        "Name[zh_CN]": "wayland",
        "Name[zh_TW]": "wayland"
    }
}
