{
    "KPlugin": {
        "Category": "Accessibility",
        "Description": "Inverts the color of the desktop and windows",
        "Description[ar]": "يعكس ألوان سطح المكتب والنوافذ",
        "Description[az]": "İş Masası və pəncərənin neqativi",
        "Description[ca@valencia]": "Inverteix el color de l'escriptori i les finestres",
        "Description[ca]": "Inverteix el color de l'escriptori i les finestres",
        "Description[cs]": "Invertuje barvy plochy a oken",
        "Description[de]": "Invertiert die Farben der Arbeitsfläche und Fenster",
        "Description[en_GB]": "Inverts the colour of the desktop and windows",
        "Description[es]": "Invierte el color del escritorio y de las ventanas",
        "Description[fi]": "Kääntää työpöydän ja ikkunoiden värit",
        "Description[fr]": "Inverse la couleur du bureau et des fenêtres",
        "Description[hu]": "Invertálja az asztal és az ablakok színét",
        "Description[ia]": "Il inverte le colores del scriptorio e del fenestras",
        "Description[id]": "Kebalikan warna pada desktop dan window",
        "Description[it]": "Inverte i colori del desktop e delle finestre",
        "Description[ko]": "바탕 화면과 창의 색을 반전시킵니다",
        "Description[nl]": "Draait de kleuren van het bureaublad en de vensters om",
        "Description[nn]": "Snu fargane på skrivebordet og vindauge",
        "Description[pl]": "Odwraca kolory pulpitu i okien",
        "Description[pt]": "Inverte a cor do ecrã e das janelas",
        "Description[pt_BR]": "Inverte as cores das janelas e da área de trabalho",
        "Description[ro]": "Inversează culorile biroului și ferestrelor",
        "Description[ru]": "Инверсия цвета рабочего стола и окон",
        "Description[sk]": "Invertuje farbu plochy a okien",
        "Description[sl]": "Invertiraj barve namizja in oken",
        "Description[sv]": "Invertera skrivbordets och fönstrens färg",
        "Description[ta]": "பணிமேடையிலும் சாளரங்களிலும் உள்ள நிறங்களை புரட்டும்",
        "Description[tr]": "Masaüstü ve pencerelerin renklerini ters çevirir",
        "Description[uk]": "Обернення кольорів стільниці і вікон",
        "Description[vi]": "Đảo màu bàn làm việc và các cửa sổ",
        "Description[x-test]": "xxInverts the color of the desktop and windowsxx",
        "Description[zh_CN]": "对桌面和窗口的颜色进行反相显示",
        "EnabledByDefault": false,
        "Id": "invert",
        "License": "GPL",
        "Name": "Invert",
        "Name[ar]": "اعكس",
        "Name[az]": "Tərsinə çevirmək",
        "Name[ca@valencia]": "Inverteix",
        "Name[ca]": "Inverteix",
        "Name[cs]": "Invertovat",
        "Name[de]": "Invertieren",
        "Name[en_GB]": "Invert",
        "Name[es]": "Invertir",
        "Name[fi]": "Käänteiset värit",
        "Name[fr]": "Inverser",
        "Name[hu]": "Invertálás",
        "Name[ia]": "Inverte",
        "Name[it]": "Inverti",
        "Name[ko]": "반전",
        "Name[nl]": "Inverteren",
        "Name[nn]": "Snu fargane",
        "Name[pl]": "Odwróć",
        "Name[pt]": "Inverter",
        "Name[pt_BR]": "Inverter",
        "Name[ro]": "Inversare",
        "Name[ru]": "Инверсия",
        "Name[sk]": "Invertovať",
        "Name[sl]": "Invertiraj",
        "Name[sv]": "Invertera",
        "Name[ta]": "புரட்டு",
        "Name[tr]": "Ters Çevir",
        "Name[uk]": "Інверсія",
        "Name[vi]": "Đảo",
        "Name[x-test]": "xxInvertxx",
        "Name[zh_CN]": "颜色反相"
    },
    "X-KDE-ConfigModule": "kwin_invert_config",
    "org.kde.kwin.effect": {
        "video": "https://files.kde.org/plasma/kwin/effect-videos/invert.mp4"
    }
}
